Date,release,count
2019-03-01,buster,0
2019-03-01,jessie,1
2019-03-01,stretch,74
2019-08-15,buster,25
2019-08-15,jessie,1
2019-08-15,stretch,49
2019-10-07,buster,35
2019-10-07,jessie,1
2019-10-07,stretch,43
2019-10-08,buster,40
2019-10-08,stretch,38
2019-10-08,jessie,1
2019-10-09,buster,46
2019-10-09,stretch,33
2019-10-09,jessie,1
2019-10-23,stretch,31
2019-10-23,buster,46
2019-10-23,jessie,1
2019-11-25,jessie,1
2019-11-25,buster,46
2019-11-25,stretch,29
2020-01-13,stretch,28
2020-01-13,buster,48
2020-01-13,jessie,1
2020-01-29,buster,50
2020-01-29,stretch,26
2020-01-29,jessie,1
2020-03-10,stretch,22
2020-03-10,buster,54
2020-03-10,jessie,1
2020-04-09,jessie,0
2020-04-14,buster,55
2020-04-14,stretch,21
2020-04-14,jessie,0
2020-05-11,buster,57
2020-05-11,stretch,17
2020-05-11,jessie,0
2020-05-25,jessie,0
2020-05-25,buster,61
2020-05-25,stretch,14
2020-06-10,buster,62
2020-06-10,stretch,12
2020-07-01,buster,69
2020-07-01,stretch,3
2020-10-30,buster,74
2020-10-30,stretch,2
2020-11-18,buster,76
2020-11-18,stretch,2
2021-11-17,buster,85
2021-11-17,bullseye,4
2021-11-17,stretch,0
